…
## Random sampling with dplyr

First of all, I must say that during the last couple of months I've grown
more and more accustomed to using [dplyr's](https://dplyr.tidyverse.org/) piping and data
manipulation techniques. They have absolutely revolutionized the way I write
R code nowadays. Here's one typical use case for me that has to do with
annotating samples.

Consider [this dataset]("/data/headverbs.csv") consisting of Finnish and Russian verbs:

```r
# A tibble: 543 x 2
# Groups:   lang [2]
   lang  headverb
   <chr> <chr>
 1 fi    saada
 2 fi    tehdä
 3 ru    провести
 4 ru    принять
 5 ru    получить
 6 fi    voittaa
 7 ru    опубликовать
 8 fi    aloittaa
 9 fi    antaa
10 fi    ottaa
# ... with 533 more rows
…
